18,0.018825,0.029575,0.043219,0.059384,0.084614,0.091224,0.112809,0.121317,0.131289,0.176749,
17,0.016161,0.029747,0.042185,0.071395,0.072901,0.084504,0.097547,0.109721,0.123139,0.164681,
16,0.012687,0.025280,0.038673,0.056520,0.065598,0.078013,0.092404,0.111669,0.165262,0.139172,
15,0.013106,0.024841,0.037116,0.052451,0.061475,0.074606,0.090147,0.100553,0.115334,0.134855,
14,0.011724,0.023794,0.043595,0.048141,0.059891,0.073937,0.082814,0.096557,0.107002,0.129783,
13,0.011251,0.033198,0.032970,0.045654,0.074797,0.067524,0.080681,0.089154,0.101075,0.115089,
12,0.010896,0.021381,0.031473,0.041883,0.053928,0.067196,0.086529,0.085635,0.096436,0.107466,
11,0.009776,0.019471,0.030906,0.038845,0.059083,0.061904,0.073587,0.082827,0.096050,0.109550,
10,0.009239,0.019586,0.028798,0.036703,0.046672,0.057489,0.095848,0.075044,0.114040,0.104698,
9,0.008620,0.019077,0.027455,0.036096,0.047767,0.053441,0.064045,0.070557,0.077580,0.119381,
8,0.010072,0.017591,0.024555,0.033890,0.040478,0.048719,0.058620,0.065690,0.074026,0.083690,
7,0.007911,0.014853,0.022719,0.030943,0.043280,0.049670,0.053250,0.061576,0.067675,0.076169,
6,0.006818,0.015442,0.021157,0.029200,0.044097,0.044632,0.050400,0.055329,0.061330,0.108235,
5,0.006483,0.012603,0.019068,0.024922,0.031946,0.037352,0.055319,0.049671,0.067388,0.062749,
4,0.005851,0.011197,0.026547,0.023386,0.028908,0.034465,0.051291,0.044604,0.099786,0.058621,
3,0.005905,0.012105,0.017049,0.020004,0.025878,0.032854,0.034986,0.045617,0.044723,0.050302,
2,0.004884,0.008693,0.013511,0.018551,0.038420,0.026096,0.035350,0.037017,0.040343,0.044293,
1,0.003929,0.007692,0.011727,0.038792,0.020511,0.024660,0.026398,0.031594,0.034266,0.039377,
